%YAML 1.1
%TAG !u! tag:unity3d.com,2011:
--- !u!687078895 &4343727234628468602
SpriteAtlas:
  m_ObjectHideFlags: 0
  m_CorrespondingSourceObject: {fileID: 0}
  m_PrefabInternal: {fileID: 0}
  m_Name: EllenAtlas
  m_EditorData:
    serializedVersion: 2
    textureSettings:
      serializedVersion: 2
      anisoLevel: 1
      compressionQuality: 50
      maxTextureSize: 2048
      textureCompression: 0
      filterMode: 1
      generateMipMaps: 0
      readable: 0
      crunchedCompression: 0
      sRGB: 1
    platformSettings:
    - serializedVersion: 2
      m_BuildTarget: DefaultTexturePlatform
      m_MaxTextureSize: 4096
      m_ResizeAlgorithm: 0
      m_TextureFormat: -1
      m_TextureCompression: 1
      m_CompressionQuality: 50
      m_CrunchedCompression: 0
      m_AllowsAlphaSplitting: 0
      m_Overridden: 0
      m_AndroidETC2FallbackOverride: 0
    packingSettings:
      serializedVersion: 2
      padding: 4
      blockOffset: 1
      allowAlphaSplitting: 0
      enableRotation: 1
      enableTightPacking: 1
    variantMultiplier: 1
    packables:
    - {fileID: 102900000, guid: d5242e5735b9b2e4e8d083ec3ec57f20, type: 3}
    - {fileID: 102900000, guid: 665d4e657a62f4d43ad2ef343f84baff, type: 3}
    - {fileID: 102900000, guid: 2d8b918ccfe199143851ce1ee85afe74, type: 3}
    - {fileID: 102900000, guid: b9a43388f328b90418bd115768105238, type: 3}
    - {fileID: 102900000, guid: 71cd489115374f641b38398e137a023d, type: 3}
    - {fileID: 102900000, guid: 988a6db9324861049b4ebc411e7b1cd5, type: 3}
    - {fileID: 102900000, guid: 8e3685d9c7132994085534df28be4a7b, type: 3}
    bindAsDefault: 1
  m_MasterAtlas: {fileID: 0}
  m_PackedSprites:
  - {fileID: 21300000, guid: e4381a10685b28d4f906cc686ecbc2c7, type: 3}
  - {fileID: 21300000, guid: d366315072065fc4891bc2f5281daca4, type: 3}
  - {fileID: 21300000, guid: b2d03960805e00146a93e7a607cc5f72, type: 3}
  - {fileID: 21300000, guid: 87e29b609bb169245a2df3d89266630c, type: 3}
  - {fileID: 21300000, guid: 967004704d0400c45945b1dc74fc5eb6, type: 3}
  - {fileID: 21300000, guid: f3b094a028c28604382b41bfab29604a, type: 3}
  - {fileID: 21300000, guid: dfd2eca0b8de7a443a0b28c6466f55ba, type: 3}
  - {fileID: 21300000, guid: 591e3ea0fd60a1442bfbe969a16d4d74, type: 3}
  - {fileID: 21300000, guid: a53475b08393802498550588cf70ef5e, type: 3}
  - {fileID: 21300000, guid: 129972c0ed661da47bd600512df59822, type: 3}
  - {fileID: 21300000, guid: e7f298e049bf3bb41bca4bbd8ceee9ad, type: 3}
  - {fileID: 21300000, guid: 28b55e113ed8d2e499533bc878cf9c3e, type: 3}
  - {fileID: 21300000, guid: 5d25d9e1de070994db63a462e89932d7, type: 3}
  - {fileID: 21300000, guid: d3c1e30225625c14e9bf351c35be2fd9, type: 3}
  - {fileID: 21300000, guid: fffa3e12c34c2ee448d46f5c9db142e6, type: 3}
  - {fileID: 21300000, guid: 37547022c0607c544915b3089832635d, type: 3}
  - {fileID: 21300000, guid: a4cfd522aaaa4ac45980e1828c8dea2c, type: 3}
  - {fileID: 21300000, guid: 5b1c7342d6504e3448979307c3f6a639, type: 3}
  - {fileID: 21300000, guid: 2350b442f31bb1741b68a6b77d09d40b, type: 3}
  - {fileID: 21300000, guid: 28e829622ce5c974bbf154a278a2be22, type: 3}
  - {fileID: 21300000, guid: 5edee3b2ea56ae64881eacb7f58be021, type: 3}
  - {fileID: 21300000, guid: 7568b5e22ac6e1b4687bb661ac8f0d74, type: 3}
  - {fileID: 21300000, guid: 301fc9f2a0405ee45ad84f7b550051d5, type: 3}
  - {fileID: 21300000, guid: 453c8803862e72b43ad3652b8fe03437, type: 3}
  - {fileID: 21300000, guid: 7dcbef0330b37354dae1c1071956813a, type: 3}
  - {fileID: 21300000, guid: a9f05e230fdd41b4f99ac0e0b7c4fa2b, type: 3}
  - {fileID: 21300000, guid: 12ea17332fa174442af48960686e1769, type: 3}
  - {fileID: 21300000, guid: 4b74c95301673024c9dbf47514f2cb5b, type: 3}
  - {fileID: 21300000, guid: 6f8b0a53ff8c9e94f9d4af829e2ad6f3, type: 3}
  - {fileID: 21300000, guid: c93003632dfb3f346ae28336c8748cc1, type: 3}
  - {fileID: 21300000, guid: ed4c6463819f7cb4b85a6a44dc35c9cf, type: 3}
  - {fileID: 21300000, guid: 3bcc6973de396d247a99745a0c323d38, type: 3}
  - {fileID: 21300000, guid: 1877f93426f7f3848a2d0ec5ec6ee4a1, type: 3}
  - {fileID: 21300000, guid: ae6184443cb4d0f439bab73e9e76df4a, type: 3}
  - {fileID: 21300000, guid: affa4f4470b317440b7cb5187df710ef, type: 3}
  - {fileID: 21300000, guid: 774282641b60d9d4daddad7c6ad7ae69, type: 3}
  - {fileID: 21300000, guid: 32713ff48a4e8dc42a32b9d4d19ea5fe, type: 3}
  - {fileID: 21300000, guid: 05df8025a12814d46b434681a6989133, type: 3}
  - {fileID: 21300000, guid: 92f985257d4b81740b246818800efccd, type: 3}
  - {fileID: 21300000, guid: 57585d65d25175a4b82cdcd9092545ca, type: 3}
  - {fileID: 21300000, guid: bce1db75cf9f0c7448eb419ad2e38c8a, type: 3}
  - {fileID: 21300000, guid: 1fa29ad54380226498c2250e612fec93, type: 3}
  - {fileID: 21300000, guid: fcec6de5f73f3b74480aa66ffac97f43, type: 3}
  - {fileID: 21300000, guid: ca897d165bbb9094584da008d90d3df5, type: 3}
  - {fileID: 21300000, guid: 5f800286e4f0550478208c51d0a48d0f, type: 3}
  - {fileID: 21300000, guid: 89339a864e8d9994ea7c9531ae92e67e, type: 3}
  - {fileID: 21300000, guid: 221d99e63cd1a414bad8cd6c93cb95c2, type: 3}
  - {fileID: 21300000, guid: 5f51f8f690669d84cacaeab399fce579, type: 3}
  - {fileID: 21300000, guid: 5cdf5107efb2e8c4d980153f752a57c1, type: 3}
  - {fileID: 21300000, guid: b0cff70733e6b0b41a5ad812ead6cd8b, type: 3}
  - {fileID: 21300000, guid: bb6a891737c56e6438e808fb4e716321, type: 3}
  - {fileID: 21300000, guid: c4d7d6470acd7bf45971042161c6e018, type: 3}
  - {fileID: 21300000, guid: c6b584771aee7a148bcf2885a6f347ba, type: 3}
  - {fileID: 21300000, guid: 49594577334bdee479b8dd58aedf1d60, type: 3}
  - {fileID: 21300000, guid: 45ed26a75477df843a013176e95192a9, type: 3}
  - {fileID: 21300000, guid: cb0f74b7e0e21ee47b09fdb24a83094f, type: 3}
  - {fileID: 21300000, guid: 686160c7c3cfd5040a8ea08b867ff56c, type: 3}
  - {fileID: 21300000, guid: b0acf1d76f96df547a6135841ee354f8, type: 3}
  - {fileID: 21300000, guid: 1eb8ffe712da55942b19d29be7a6e5da, type: 3}
  - {fileID: 21300000, guid: fe5165f702e35144684bf593203a031c, type: 3}
  - {fileID: 21300000, guid: 455b6008820c4b143bdc7ed7c6cd29c4, type: 3}
  - {fileID: 21300000, guid: 5767e2180fcbb7a4d9980e9a37e3d588, type: 3}
  - {fileID: 21300000, guid: 88f2ac18ae0c71845bc1d47bd924f8a8, type: 3}
  - {fileID: 21300000, guid: dcc9002875a3a244eacb72418d292f8e, type: 3}
  - {fileID: 21300000, guid: 2eaa4938329e1204ca267982a8cdb3fa, type: 3}
  - {fileID: 21300000, guid: 3a5b7c781691c8642af63e9c1e6c14de, type: 3}
  - {fileID: 21300000, guid: 6b594b886c601ff4db79a8ffa0673177, type: 3}
  - {fileID: 21300000, guid: 753548c84e6e0264da62aca9c26f94c4, type: 3}
  - {fileID: 21300000, guid: 690102d87edd7d047824362d73a02788, type: 3}
  - {fileID: 21300000, guid: 76089009971280441963c2a3a55b5071, type: 3}
  - {fileID: 21300000, guid: 4214a14962bcf4943baf9e184b9b928e, type: 3}
  - {fileID: 21300000, guid: c63c69d9fdf411147aede23769d5fcfc, type: 3}
  - {fileID: 21300000, guid: 13aa9a4a1bc68064c9e5e17a86df2666, type: 3}
  - {fileID: 21300000, guid: d2d936bae69c599429ee1a386892a9f0, type: 3}
  - {fileID: 21300000, guid: bf9cb13b45f6dfe41970b547e98bb782, type: 3}
  - {fileID: 21300000, guid: 634ae46b18d6e8e42a8359e8219fa81c, type: 3}
  - {fileID: 21300000, guid: 5b13d17b360e2a64cbc7b4a2ac4cd375, type: 3}
  - {fileID: 21300000, guid: aacc218bfa62aef41920035f78af31e8, type: 3}
  - {fileID: 21300000, guid: 86106dab9033ac7448f28ca19c407c2a, type: 3}
  - {fileID: 21300000, guid: b53b9dcb8117dfe4ab1c5a250703548c, type: 3}
  - {fileID: 21300000, guid: c66090fb301d69046ba811b94979feab, type: 3}
  - {fileID: 21300000, guid: 64afd51ca9828034f8c64a261e4b99b9, type: 3}
  - {fileID: 21300000, guid: 9346fa5c7f34ca845954029ac6857a12, type: 3}
  - {fileID: 21300000, guid: 7f64c56c59a2fd7429f7ec776a4213a2, type: 3}
  - {fileID: 21300000, guid: 0a78267c907b61449a0367178cabe70c, type: 3}
  - {fileID: 21300000, guid: cd65a99c817869946969cd216cab2115, type: 3}
  - {fileID: 21300000, guid: 79d7163dfd26ad748bf88cdc6b98d2f5, type: 3}
  - {fileID: 21300000, guid: 8f8e5b3d53a0deb4d88a6a25a3db5ac4, type: 3}
  - {fileID: 21300000, guid: 049cab3d3a32a3a45856ca44f223ced1, type: 3}
  - {fileID: 21300000, guid: aa9e3d4d344a1c548a75a061ab69c3fb, type: 3}
  - {fileID: 21300000, guid: 31d88d4dbed3d9546898b42447a63e77, type: 3}
  - {fileID: 21300000, guid: 9989c37dedfecfa4591fd9f1821713cb, type: 3}
  - {fileID: 21300000, guid: ff33d6adfeac52e419af23fad2d0abfd, type: 3}
  - {fileID: 21300000, guid: 60a2cfad92429cc4b9d2f6ce7148c37a, type: 3}
  - {fileID: 21300000, guid: df6f54cd95dfdf148a5c4cc0aca6d49f, type: 3}
  - {fileID: 21300000, guid: 614b90dda34ee634893a6168082923be, type: 3}
  - {fileID: 21300000, guid: c7cf710ee57c1ae45aac513a85fcff07, type: 3}
  - {fileID: 21300000, guid: 0b69f35e166d1704f987340b84eaefe6, type: 3}
  - {fileID: 21300000, guid: 5b31577ecf5954448b0d92a2c8a0501b, type: 3}
  - {fileID: 21300000, guid: af68c0be2e67f3846bcdf33841f8312b, type: 3}
  - {fileID: 21300000, guid: 39f2b1de192463d41a4339ee2b5f2074, type: 3}
  - {fileID: 21300000, guid: eb350ede4895d6d418689eb126b772cb, type: 3}
  - {fileID: 21300000, guid: 8a9b494f275a2954aba6b318fc17d9bd, type: 3}
  - {fileID: 21300000, guid: f7f3915fcb9a6744a9a147ed3ee26ebe, type: 3}
  - {fileID: 21300000, guid: aefc8fcf439e0ae40bab5098679276b5, type: 3}
  - {fileID: 21300000, guid: 3b3834ff0aab3d849bca2adc0c0d5f84, type: 3}
  m_PackedSpriteNamesToIndex:
  - Anim_JUMP_02
  - Anim_IDLE_WITHGUN_00017
  - Anim_IDLE_WITHGUN_00003
  - ELLEN_RUN_NoGun_05
  - Anim_JUMPwithGUN_05
  - Anim_IDLE_00027
  - ELLEN_RUN_NoGun_08
  - Anim_IDLE_00023
  - Anim_IDLE_00009
  - Anim_IDLE_WITHGUN_00023
  - Anim_RUN_WithGun_00011
  - Anim_IDLE_WITHGUN_00001
  - ELLEN_RUN_NoGun_11
  - ELLEN_RUN_NoGun_20
  - Anim_JUMP_13
  - ELLEN_RUN_NoGun_22
  - ELLEN_RUN_NoGun_06
  - Anim_StaffAttack_Type1_00007
  - Anim_JUMPwithGUN_04
  - Anim_JUMPwithGUN_15
  - Anim_IDLE_WITHGUN_00021
  - Anim_IDLE_WITHGUN_00009
  - ELLEN_RUN_NoGun_09
  - ELLEN_RUN_NoGun_14
  - Anim_JUMP_11
  - Anim_JUMP_08
  - ELLEN_RUN_NoGun_02
  - Anim_RUN_WithGun_00003
  - Anim_JUMP_03
  - Anim_JUMPwithGUN_06
  - Anim_IDLE_00029
  - Anim_RUN_WithGun_00015
  - Anim_IDLE_WITHGUN_00015
  - Anim_JUMP_09
  - Anim_JUMP_04
  - Anim_IDLE_00007
  - Anim_JUMPwithGUN_14
  - ELLEN_RUN_NoGun_10
  - Anim_StaffAttack_Type1_00005
  - Anim_RUN_WithGun_00001
  - Anim_JUMPwithGUN_19
  - Anim_IDLE_00003
  - Anim_JUMP_10
  - Anim_JUMP_12
  - Anim_JUMPwithGUN_08
  - ELLEN_RUN_NoGun_13
  - Anim_JUMPwithGUN_02
  - Anim_JUMPwithGUN_10
  - ELLEN_RUN_NoGun_18
  - Anim_IDLE_WITHGUN_00013
  - Anim_JUMP_06
  - Anim_IDLE_00001
  - Anim_IDLE_00011
  - Anim_JUMPwithGUN_12
  - ELLEN_RUN_NoGun_03
  - Anim_JUMP_19
  - Anim_JUMP_18
  - Anim_IDLE_WITHGUN_00027
  - Anim_JUMP_16
  - Anim_JUMPwithGUN_09
  - Anim_IDLE_WITHGUN_00019
  - Anim_JUMP_01
  - ELLEN_RUN_NoGun_21
  - Anim_IDLE_00015
  - ELLEN_RUN_NoGun_07
  - ELLEN_RUN_NoGun_04
  - Anim_StaffAttack_Type1_00011
  - Anim_IDLE_WITHGUN_00005
  - ELLEN_RUN_NoGun_17
  - Anim_IDLE_00019
  - Anim_JUMP_05
  - Anim_RUN_WithGun_00007
  - Anim_JUMP_15
  - Anim_IDLE_00025
  - Anim_RUN_WithGun_00017
  - Anim_JUMPwithGUN_01
  - Anim_JUMPwithGUN_11
  - Anim_JUMPwithGUN_16
  - Anim_JUMPwithGUN_13
  - Anim_JUMPwithGUN_07
  - Anim_StaffAttack_Type1_00009
  - Anim_IDLE_00017
  - Anim_IDLE_WITHGUN_00025
  - Anim_IDLE_WITHGUN_00007
  - Anim_IDLE_WITHGUN_00029
  - Anim_IDLE_00021
  - ELLEN_RUN_NoGun_16
  - Anim_IDLE_WITHGUN_00011
  - Anim_JUMPwithGUN_17
  - Anim_StaffAttack_Type1_00003
  - Anim_JUMP_17
  - ELLEN_RUN_NoGun_12
  - ELLEN_RUN_NoGun_01
  - Anim_IDLE_00013
  - Anim_RUN_WithGun_00019
  - Anim_JUMPwithGUN_03
  - Anim_IDLE_00005
  - Anim_JUMPwithGUN_18
  - Anim_JUMP_14
  - Anim_JUMP_07
  - Anim_RUN_WithGun_00021
  - ELLEN_RUN_NoGun_15
  - Anim_RUN_WithGun_00013
  - Anim_RUN_WithGun_00009
  - Anim_RUN_WithGun_00005
  - ELLEN_RUN_NoGun_19
  m_Tag: EllenAtlas
  m_IsVariant: 0
