%YAML 1.1
%TAG !u! tag:unity3d.com,2011:
--- !u!74 &7400000
AnimationClip:
  m_ObjectHideFlags: 0
  m_CorrespondingSourceObject: {fileID: 0}
  m_PrefabInternal: {fileID: 0}
  m_Name: Ellen_IdlePistol
  serializedVersion: 6
  m_Legacy: 0
  m_Compressed: 0
  m_UseHighQualityCurve: 1
  m_RotationCurves: []
  m_CompressedRotationCurves: []
  m_EulerCurves: []
  m_PositionCurves: []
  m_ScaleCurves: []
  m_FloatCurves: []
  m_PPtrCurves:
  - curve:
    - time: 0
      value: {fileID: 21300000, guid: 28b55e113ed8d2e499533bc878cf9c3e, type: 3}
    - time: 0.083333336
      value: {fileID: 21300000, guid: b2d03960805e00146a93e7a607cc5f72, type: 3}
    - time: 0.16666667
      value: {fileID: 21300000, guid: 753548c84e6e0264da62aca9c26f94c4, type: 3}
    - time: 0.2
      value: {fileID: 21300000, guid: 7f64c56c59a2fd7429f7ec776a4213a2, type: 3}
    - time: 0.28333333
      value: {fileID: 21300000, guid: 7568b5e22ac6e1b4687bb661ac8f0d74, type: 3}
    - time: 0.36666667
      value: {fileID: 21300000, guid: 8f8e5b3d53a0deb4d88a6a25a3db5ac4, type: 3}
    - time: 0.43333334
      value: {fileID: 21300000, guid: b0cff70733e6b0b41a5ad812ead6cd8b, type: 3}
    - time: 0.51666665
      value: {fileID: 21300000, guid: 1877f93426f7f3848a2d0ec5ec6ee4a1, type: 3}
    - time: 0.56666666
      value: {fileID: 21300000, guid: d366315072065fc4891bc2f5281daca4, type: 3}
    - time: 0.6333333
      value: {fileID: 21300000, guid: 455b6008820c4b143bdc7ed7c6cd29c4, type: 3}
    - time: 0.71666664
      value: {fileID: 21300000, guid: 5edee3b2ea56ae64881eacb7f58be021, type: 3}
    - time: 0.8
      value: {fileID: 21300000, guid: 129972c0ed661da47bd600512df59822, type: 3}
    - time: 0.8333333
      value: {fileID: 21300000, guid: 9346fa5c7f34ca845954029ac6857a12, type: 3}
    - time: 0.9166667
      value: {fileID: 21300000, guid: b0acf1d76f96df547a6135841ee354f8, type: 3}
    - time: 1
      value: {fileID: 21300000, guid: 0a78267c907b61449a0367178cabe70c, type: 3}
    attribute: m_Sprite
    path: 
    classID: 212
    script: {fileID: 0}
  m_SampleRate: 60
  m_WrapMode: 0
  m_Bounds:
    m_Center: {x: 0, y: 0, z: 0}
    m_Extent: {x: 0, y: 0, z: 0}
  m_ClipBindingConstant:
    genericBindings:
    - serializedVersion: 2
      path: 0
      attribute: 0
      script: {fileID: 0}
      typeID: 212
      customType: 23
      isPPtrCurve: 1
    pptrCurveMapping:
    - {fileID: 21300000, guid: 28b55e113ed8d2e499533bc878cf9c3e, type: 3}
    - {fileID: 21300000, guid: b2d03960805e00146a93e7a607cc5f72, type: 3}
    - {fileID: 21300000, guid: 753548c84e6e0264da62aca9c26f94c4, type: 3}
    - {fileID: 21300000, guid: 7f64c56c59a2fd7429f7ec776a4213a2, type: 3}
    - {fileID: 21300000, guid: 7568b5e22ac6e1b4687bb661ac8f0d74, type: 3}
    - {fileID: 21300000, guid: 8f8e5b3d53a0deb4d88a6a25a3db5ac4, type: 3}
    - {fileID: 21300000, guid: b0cff70733e6b0b41a5ad812ead6cd8b, type: 3}
    - {fileID: 21300000, guid: 1877f93426f7f3848a2d0ec5ec6ee4a1, type: 3}
    - {fileID: 21300000, guid: d366315072065fc4891bc2f5281daca4, type: 3}
    - {fileID: 21300000, guid: 455b6008820c4b143bdc7ed7c6cd29c4, type: 3}
    - {fileID: 21300000, guid: 5edee3b2ea56ae64881eacb7f58be021, type: 3}
    - {fileID: 21300000, guid: 129972c0ed661da47bd600512df59822, type: 3}
    - {fileID: 21300000, guid: 9346fa5c7f34ca845954029ac6857a12, type: 3}
    - {fileID: 21300000, guid: b0acf1d76f96df547a6135841ee354f8, type: 3}
    - {fileID: 21300000, guid: 0a78267c907b61449a0367178cabe70c, type: 3}
  m_AnimationClipSettings:
    serializedVersion: 2
    m_AdditiveReferencePoseClip: {fileID: 0}
    m_AdditiveReferencePoseTime: 0
    m_StartTime: 0
    m_StopTime: 1.0166667
    m_OrientationOffsetY: 0
    m_Level: 0
    m_CycleOffset: 0
    m_HasAdditiveReferencePose: 0
    m_LoopTime: 1
    m_LoopBlend: 0
    m_LoopBlendOrientation: 0
    m_LoopBlendPositionY: 0
    m_LoopBlendPositionXZ: 0
    m_KeepOriginalOrientation: 0
    m_KeepOriginalPositionY: 1
    m_KeepOriginalPositionXZ: 0
    m_HeightFromFeet: 0
    m_Mirror: 0
  m_EditorCurves: []
  m_EulerEditorCurves: []
  m_HasGenericRootTransform: 0
  m_HasMotionFloatCurves: 0
  m_GenerateMotionCurves: 0
  m_Events: []
