%YAML 1.1
%TAG !u! tag:unity3d.com,2011:
--- !u!74 &7400000
AnimationClip:
  m_ObjectHideFlags: 0
  m_CorrespondingSourceObject: {fileID: 0}
  m_PrefabInternal: {fileID: 0}
  m_Name: Ellen_Flying
  serializedVersion: 6
  m_Legacy: 0
  m_Compressed: 0
  m_UseHighQualityCurve: 1
  m_RotationCurves: []
  m_CompressedRotationCurves: []
  m_EulerCurves: []
  m_PositionCurves: []
  m_ScaleCurves: []
  m_FloatCurves: []
  m_PPtrCurves:
  - curve:
    - time: 0
      value: {fileID: 21300000, guid: 5767e2180fcbb7a4d9980e9a37e3d588, type: 3}
    - time: 0.033333335
      value: {fileID: 21300000, guid: e4381a10685b28d4f906cc686ecbc2c7, type: 3}
    - time: 0.1
      value: {fileID: 21300000, guid: 6f8b0a53ff8c9e94f9d4af829e2ad6f3, type: 3}
    - time: 0.15
      value: {fileID: 21300000, guid: 4214a14962bcf4943baf9e184b9b928e, type: 3}
    - time: 0.21666667
      value: {fileID: 21300000, guid: bb6a891737c56e6438e808fb4e716321, type: 3}
    - time: 0.25
      value: {fileID: 21300000, guid: af68c0be2e67f3846bcdf33841f8312b, type: 3}
    - time: 0.28333333
      value: {fileID: 21300000, guid: a9f05e230fdd41b4f99ac0e0b7c4fa2b, type: 3}
    - time: 0.31666666
      value: {fileID: 21300000, guid: ae6184443cb4d0f439bab73e9e76df4a, type: 3}
    - time: 0.38333333
      value: {fileID: 21300000, guid: 7dcbef0330b37354dae1c1071956813a, type: 3}
    - time: 0.48333332
      value: {fileID: 21300000, guid: ca897d165bbb9094584da008d90d3df5, type: 3}
    - time: 0.5
      value: {fileID: 21300000, guid: fffa3e12c34c2ee448d46f5c9db142e6, type: 3}
    - time: 0.53333336
      value: {fileID: 21300000, guid: 5b31577ecf5954448b0d92a2c8a0501b, type: 3}
    attribute: m_Sprite
    path: 
    classID: 212
    script: {fileID: 0}
  m_SampleRate: 60
  m_WrapMode: 0
  m_Bounds:
    m_Center: {x: 0, y: 0, z: 0}
    m_Extent: {x: 0, y: 0, z: 0}
  m_ClipBindingConstant:
    genericBindings:
    - serializedVersion: 2
      path: 0
      attribute: 0
      script: {fileID: 0}
      typeID: 212
      customType: 23
      isPPtrCurve: 1
    pptrCurveMapping:
    - {fileID: 21300000, guid: 5767e2180fcbb7a4d9980e9a37e3d588, type: 3}
    - {fileID: 21300000, guid: e4381a10685b28d4f906cc686ecbc2c7, type: 3}
    - {fileID: 21300000, guid: 6f8b0a53ff8c9e94f9d4af829e2ad6f3, type: 3}
    - {fileID: 21300000, guid: 4214a14962bcf4943baf9e184b9b928e, type: 3}
    - {fileID: 21300000, guid: bb6a891737c56e6438e808fb4e716321, type: 3}
    - {fileID: 21300000, guid: af68c0be2e67f3846bcdf33841f8312b, type: 3}
    - {fileID: 21300000, guid: a9f05e230fdd41b4f99ac0e0b7c4fa2b, type: 3}
    - {fileID: 21300000, guid: ae6184443cb4d0f439bab73e9e76df4a, type: 3}
    - {fileID: 21300000, guid: 7dcbef0330b37354dae1c1071956813a, type: 3}
    - {fileID: 21300000, guid: ca897d165bbb9094584da008d90d3df5, type: 3}
    - {fileID: 21300000, guid: fffa3e12c34c2ee448d46f5c9db142e6, type: 3}
    - {fileID: 21300000, guid: 5b31577ecf5954448b0d92a2c8a0501b, type: 3}
  m_AnimationClipSettings:
    serializedVersion: 2
    m_AdditiveReferencePoseClip: {fileID: 0}
    m_AdditiveReferencePoseTime: 0
    m_StartTime: 0
    m_StopTime: 0.55
    m_OrientationOffsetY: 0
    m_Level: 0
    m_CycleOffset: 0
    m_HasAdditiveReferencePose: 0
    m_LoopTime: 0
    m_LoopBlend: 0
    m_LoopBlendOrientation: 0
    m_LoopBlendPositionY: 0
    m_LoopBlendPositionXZ: 0
    m_KeepOriginalOrientation: 0
    m_KeepOriginalPositionY: 1
    m_KeepOriginalPositionXZ: 0
    m_HeightFromFeet: 0
    m_Mirror: 0
  m_EditorCurves: []
  m_EulerEditorCurves: []
  m_HasGenericRootTransform: 0
  m_HasMotionFloatCurves: 0
  m_GenerateMotionCurves: 0
  m_Events: []
